%YAML 1.1
%TAG !u! tag:unity3d.com,2011:
--- !u!21 &2100000
Material:
  serializedVersion: 6
  m_ObjectHideFlags: 0
  m_CorrespondingSourceObject: {fileID: 0}
  m_PrefabInstance: {fileID: 0}
  m_PrefabAsset: {fileID: 0}
  m_Name: Ocean
  m_Shader: {fileID: -6465566751694194690, guid: 4da008fbbb51809418ceaa92104cefa8,
    type: 3}
  m_ShaderKeywords: 
  m_LightmapFlags: 4
  m_EnableInstancingVariants: 0
  m_DoubleSidedGI: 0
  m_CustomRenderQueue: -1
  stringTagMap: {}
  disabledShaderPasses: []
  m_SavedProperties:
    serializedVersion: 3
    m_TexEnvs:
    - Texture2D_2F99DBD1:
        m_Texture: {fileID: 2800000, guid: 06844542a644a9c439d0186c27dd7d40, type: 3}
        m_Scale: {x: 1, y: 1}
        m_Offset: {x: 0, y: 0}
    - Texture2D_A2C7E481:
        m_Texture: {fileID: 2800000, guid: 06844542a644a9c439d0186c27dd7d40, type: 3}
        m_Scale: {x: 1, y: 1}
        m_Offset: {x: 0, y: 0}
    - Texture2D_D6A1A941:
        m_Texture: {fileID: 2800000, guid: 06844542a644a9c439d0186c27dd7d40, type: 3}
        m_Scale: {x: 1, y: 1}
        m_Offset: {x: 0, y: 0}
    - _BaseMap:
        m_Texture: {fileID: 0}
        m_Scale: {x: 1, y: 1}
        m_Offset: {x: 0, y: 0}
    - _BumpMap:
        m_Texture: {fileID: 0}
        m_Scale: {x: 1, y: 1}
        m_Offset: {x: 0, y: 0}
    - _EmissionMap:
        m_Texture: {fileID: 0}
        m_Scale: {x: 1, y: 1}
        m_Offset: {x: 0, y: 0}
    - _MainTex:
        m_Texture: {fileID: 0}
        m_Scale: {x: 60, y: 100}
        m_Offset: {x: 0, y: 0}
    - _MetallicGlossMap:
        m_Texture: {fileID: 0}
        m_Scale: {x: 1, y: 1}
        m_Offset: {x: 0, y: 0}
    - _OcclusionMap:
        m_Texture: {fileID: 0}
        m_Scale: {x: 1, y: 1}
        m_Offset: {x: 0, y: 0}
    - _SpecGlossMap:
        m_Texture: {fileID: 0}
        m_Scale: {x: 1, y: 1}
        m_Offset: {x: 0, y: 0}
    - _Texture2DAsset_650157D9_Out_0:
        m_Texture: {fileID: 2800000, guid: 791775aaaeee4984ba57c67fbd3f7e06, type: 3}
        m_Scale: {x: 1, y: 1}
        m_Offset: {x: 0, y: 0}
    - _Texture2DAsset_7EC4B84E_Out_0:
        m_Texture: {fileID: 2800000, guid: 06844542a644a9c439d0186c27dd7d40, type: 3}
        m_Scale: {x: 1, y: 1}
        m_Offset: {x: 0, y: 0}
    m_Floats:
    - ShoreLineTransparency: 2.1456785
    - Vector1_146CD12F: 1
    - Vector1_408DFC40: 310
    - Vector1_4AA589E0: 0.01
    - Vector1_5FBEA9A6: 1
    - Vector1_68F96C81: 0.2
    - Vector1_6C8B0029: 1.5
    - Vector1_7D62F249: 1
    - Vector1_7F0534EC: 2
    - Vector1_7F888B33: 0.71
    - Vector1_84687C98: 2
    - Vector1_C7789872: 0.01
    - _AlphaClip: 0
    - _Blend: 0
    - _BumpScale: 1
    - _Cull: 2
    - _Cutoff: 0.5
    - _DstBlend: 0
    - _EnvironmentReflections: 1
    - _GlossMapScale: 0
    - _Glossiness: 0
    - _GlossyReflections: 0
    - _Metallic: 0
    - _OcclusionStrength: 1
    - _QueueOffset: 0
    - _ReceiveShadows: 1
    - _Smoothness: 0.5
    - _SmoothnessTextureChannel: 0
    - _SpecularHighlights: 1
    - _SrcBlend: 1
    - _Surface: 0
    - _WorkflowMode: 1
    - _ZWrite: 1
    m_Colors:
    - Color_2DCFF814: {r: 8, g: 8, b: 8, a: 0}
    - Color_F0366984: {r: 0.635327, g: 1, b: 0.5896226, a: 1}
    - Color_F2866D3B: {r: 0.7311321, g: 0.9240418, b: 1, a: 1}
    - Vector2_4CF83878: {r: -0.01, g: 0.1, b: 0, a: 0}
    - Vector2_4F68BD2F: {r: 5, g: 10, b: 0, a: 0}
    - Vector2_5CD17FC6: {r: 0.06, g: 0.4, b: 0, a: 0}
    - _BaseColor: {r: 0.5, g: 0.5, b: 0.5, a: 1}
    - _Color: {r: 0.5, g: 0.5, b: 0.5, a: 1}
    - _EmissionColor: {r: 0, g: 0, b: 0, a: 1}
    - _SpecColor: {r: 0.19999996, g: 0.19999996, b: 0.19999996, a: 1}
--- !u!114 &4178125682481841228
MonoBehaviour:
  m_ObjectHideFlags: 11
  m_CorrespondingSourceObject: {fileID: 0}
  m_PrefabInstance: {fileID: 0}
  m_PrefabAsset: {fileID: 0}
  m_GameObject: {fileID: 0}
  m_Enabled: 1
  m_EditorHideFlags: 0
  m_Script: {fileID: 11500000, guid: d0353a89b1f911e48b9e16bdc9f2e058, type: 3}
  m_Name: 
  m_EditorClassIdentifier: 
  version: 1
